index – Real World Evidence Summer School
…
Operation with tidyverse

If you are familiarised with tidyverse you can use any of the usual dplyr commands in you database tables.

. . .

cdm$drug_exposure |>
  dplyr::group_by(drug_concept_id) |>
  dplyr::summarise(number_persons = dplyr::n_distinct(person_id)) |>
  dplyr::collect() |>
  dplyr::arrange(dplyr::desc(number_persons))

# A tibble: 113 × 2
   drug_concept_id number_persons
             <int>          <dbl>
 1        40213227           2660
 2         1127433           2580
 3        40213160           2140
 4         1713671           2021
 5        19059056           1927
 6         1118084           1844
 7        40213296           1737
 8        40213306           1560
 9         1127078           1428
10        40229134           1393
# ℹ 103 more rows
…
